{
    "variables": {
      "access_key": "",
      "secret_key": ""
    },
    "builders": [
      {
        "type": "amazon-ebs",
        "access_key": "{{user `access_key`}}",
        "secret_key": "{{user `secret_key`}}",
        "region": "eu-west-2",
        "source_ami" :"ami-096cb92bb3580c759" ,
        "instance_type": "t2.micro",
        "ssh_username": "ubuntu",
        "ami_name": "packer-nginx-backend {{timestamp}}"
      }
    ],
    "provisioners": [
        {
            "type": "ansible",
            "playbook_file": "../ansible/nginx.yaml",
            "extra_arguments": ["-v"],
            "user": "ubuntu",
            "destination": "/home/ubuntu"
        }
    ]
  }